{
  "project_info": {
    "project_number": "924779780263",
    "firebase_url": "https://mcractive-6d96e.firebaseio.com",
    "project_id": "mcractive-6d96e",
    "storage_bucket": "mcractive-6d96e.appspot.com"
  },
  "client": [
    {
      "client_info": {
        "mobilesdk_app_id": "1:924779780263:android:c1f50bddca165f30d56382",
        "android_client_info": {
          "package_name": "com.mcr.active"
        }
      },
      "oauth_client": [
        {
          "client_id": "924779780263-3om0moj1nuj3tgl110q1427p9mn1c7h0.apps.googleusercontent.com",
          "client_type": 1,
          "android_info": {
            "package_name": "com.mcr.active",
            "certificate_hash": "a9e4c44f755530dfa3dda4477725ff9dd4eda861"
          }
        },
        {
          "client_id": "924779780263-74b3p5vodd3vqin1132ksu5332qo6gh7.apps.googleusercontent.com",
          "client_type": 3
        }
      ],
      "api_key": [
        {
          "current_key": "AIzaSyDOvlMvz0IuWjxRgkc9MCmNvRLhI2IB3yk"
        }
      ],
      "services": {
        "appinvite_service": {
          "other_platform_oauth_client": [
            {
              "client_id": "924779780263-74b3p5vodd3vqin1132ksu5332qo6gh7.apps.googleusercontent.com",
              "client_type": 3
            },
            {
              "client_id": "924779780263-8qem4i5j1c3epkr5u887imo72el264sq.apps.googleusercontent.com",
              "client_type": 2,
              "ios_info": {
                "bundle_id": "com.TechMaven.MCRActive"
              }
            }
          ]
        }
      }
    }
  ],
  "configuration_version": "1"
}